…
Ejercicio 2

¿Cuántos temas hay en los datos?

Crea un gráfico de barras de la frecuencia de los temas

Solución Ejercicio 2

legos %>% count(Theme, sort = TRUE)

## # A tibble: 115 x 2
##    Theme                       n
##    <chr>                   <int>
##  1 Duplo                     471
##  2 Star Wars                 379
##  3 Town                      314
##  4 Collectable Minifigures   311
##  5 City                      282
##  6 Bionicle                  276
##  7 Technic                   243
##  8 Creator                   219
##  9 Castle                    206
## 10 Racers                    195
## # ... with 105 more rows
…
Ejercicio 7

Abre la hoja Datasaurus Dozen en Google Drive (goo.gl/QxkUQx)

Copia el archivo a tu cuenta

Lee el archivo en R directamente desde Google Drive usando el paquete googlesheets

Solución Ejercicio 7

library(googlesheets)
datasaurus <- gs_read(gs_title("datasaurus_dozen"))
datasaurus

## # A tibble: 1,846 x 3
##    dataset     x     y
##    <chr>   <dbl> <dbl>
##  1 dino     55.4  97.2
##  2 dino     51.5  96.0
##  3 dino     46.2  94.5
##  4 dino     42.8  91.4
##  5 dino     40.8  88.3
##  6 dino     38.7  84.9
##  7 dino     35.6  79.9
##  8 dino     33.1  77.6
##  9 dino     29.0  74.5
## 10 dino     26.2  71.4
## # ... with 1,836 more rows
…
