clase1.utf8
…
Solución Ejercicio 1

# Carga el Tidyverse
library(tidyverse)

# Carga los datos
passengers <- read_csv("data/titanic.csv") 

Solución Ejercicio 1

# Explora las primeras observaciones de los datos
passengers

## # A tibble: 891 x 12
##    PassengerId Survived Pclass Name   Sex     Age SibSp Parch Ticket  Fare
##          <int>    <int>  <int> <chr>  <chr> <dbl> <int> <int> <chr>  <dbl>
##  1           1        0      3 Braun~ male  22.0      1     0 A/5 2~  7.25
##  2           2        1      1 Cumin~ fema~ 38.0      1     0 PC 17~ 71.3 
##  3           3        1      3 Heikk~ fema~ 26.0      0     0 STON/~  7.92
##  4           4        1      1 Futre~ fema~ 35.0      1     0 113803 53.1 
##  5           5        0      3 Allen~ male  35.0      0     0 373450  8.05
##  6           6        0      3 Moran~ male  NA        0     0 330877  8.46
##  7           7        0      1 McCar~ male  54.0      0     0 17463  51.9 
##  8           8        0      3 Palss~ male   2.00     3     1 349909 21.1 
##  9           9        1      3 Johns~ fema~ 27.0      0     2 347742 11.1 
## 10          10        1      2 Nasse~ fema~ 14.0      1     0 237736 30.1 
## # ... with 881 more rows, and 2 more variables: Cabin <chr>,
## #   Embarked <chr>
…
Leíste los datos y los revisaste

Aprendiste algo acerca del operador %>%

Ejercicio 2: Uso de filter

Filtra para dejar sólo las observaciones que corresponden a hombres

Solución Ejercicio 2

# Filtra para dejar sólo las observaciones que corresponden a hombres
passengers %>% 
  filter(Sex == "male")

## # A tibble: 577 x 12
##    PassengerId Survived Pclass Name   Sex     Age SibSp Parch Ticket  Fare
##          <int>    <int>  <int> <chr>  <chr> <dbl> <int> <int> <chr>  <dbl>
##  1           1        0      3 Braun~ male  22.0      1     0 A/5 2~  7.25
##  2           5        0      3 Allen~ male  35.0      0     0 373450  8.05
##  3           6        0      3 Moran~ male  NA        0     0 330877  8.46
##  4           7        0      1 McCar~ male  54.0      0     0 17463  51.9 
##  5           8        0      3 Palss~ male   2.00     3     1 349909 21.1 
##  6          13        0      3 Saund~ male  20.0      0     0 A/5. ~  8.05
##  7          14        0      3 Ander~ male  39.0      1     5 347082 31.3 
##  8          17        0      3 Rice,~ male   2.00     4     1 382652 29.1 
##  9          18        1      2 Willi~ male  NA        0     0 244373 13.0 
## 10          21        0      2 Fynne~ male  35.0      0     0 239865 26.0 
## # ... with 567 more rows, and 2 more variables: Cabin <chr>,
## #   Embarked <chr>
…
Lo que acabas de hacer no altera los datos originales

filter(Sex = "male") es un error común

Ejercicio 3: Uso de filter

Filtra para dejar sólo las observaciones que corresponden a mujeres

Solución Ejercicio 3

# Filtra para dejar sólo las observaciones que corresponden a mujeres
passengers %>% 
  filter(Sex == "female")

## # A tibble: 314 x 12
##    PassengerId Survived Pclass Name   Sex     Age SibSp Parch Ticket  Fare
##          <int>    <int>  <int> <chr>  <chr> <dbl> <int> <int> <chr>  <dbl>
##  1           2        1      1 Cumin~ fema~ 38.0      1     0 PC 17~ 71.3 
##  2           3        1      3 Heikk~ fema~ 26.0      0     0 STON/~  7.92
##  3           4        1      1 Futre~ fema~ 35.0      1     0 113803 53.1 
##  4           9        1      3 Johns~ fema~ 27.0      0     2 347742 11.1 
##  5          10        1      2 Nasse~ fema~ 14.0      1     0 237736 30.1 
##  6          11        1      3 Sands~ fema~  4.00     1     1 PP 95~ 16.7 
##  7          12        1      1 Bonne~ fema~ 58.0      0     0 113783 26.6 
##  8          15        0      3 Vestr~ fema~ 14.0      0     0 350406  7.85
##  9          16        1      2 Hewle~ fema~ 55.0      0     0 248706 16.0 
## 10          19        0      3 Vande~ fema~ 31.0      1     0 345763 18.0 
## # ... with 304 more rows, and 2 more variables: Cabin <chr>,
## #   Embarked <chr>

Ejercicio 4: Uso de arrange

Ordena las observaciones usando arrange de manera creciente de acuerdo al valor de los pasajes (Fare)

Solución Ejercicio 4

# Ordena crecientemente por valor del pasaje
passengers %>% 
  arrange(Fare)

## # A tibble: 891 x 12
##    PassengerId Survived Pclass Name   Sex     Age SibSp Parch Ticket  Fare
##          <int>    <int>  <int> <chr>  <chr> <dbl> <int> <int> <chr>  <dbl>
##  1         180        0      3 Leona~ male   36.0     0     0 LINE       0
##  2         264        0      1 Harri~ male   40.0     0     0 112059     0
##  3         272        1      3 Tornq~ male   25.0     0     0 LINE       0
##  4         278        0      2 "Park~ male   NA       0     0 239853     0
##  5         303        0      3 Johns~ male   19.0     0     0 LINE       0
##  6         414        0      2 Cunni~ male   NA       0     0 239853     0
##  7         467        0      2 Campb~ male   NA       0     0 239853     0
##  8         482        0      2 "Fros~ male   NA       0     0 239854     0
##  9         598        0      3 Johns~ male   49.0     0     0 LINE       0
## 10         634        0      1 Parr,~ male   NA       0     0 112052     0
## # ... with 881 more rows, and 2 more variables: Cabin <chr>,
## #   Embarked <chr>

Ejercicio 5: Uso de arrange

Ordena las observaciones usando arrange y desc de manera decreciente de acuerdo al valor de los pasajes (Fare)

Solución Ejercicio 5

# Ordena decrecientemente por valor del pasaje
passengers %>% 
  arrange(desc(Fare))

## # A tibble: 891 x 12
##    PassengerId Survived Pclass Name   Sex     Age SibSp Parch Ticket  Fare
##          <int>    <int>  <int> <chr>  <chr> <dbl> <int> <int> <chr>  <dbl>
##  1         259        1      1 Ward,~ fema~  35.0     0     0 PC 17~   512
##  2         680        1      1 Carde~ male   36.0     0     1 PC 17~   512
##  3         738        1      1 Lesur~ male   35.0     0     0 PC 17~   512
##  4          28        0      1 Fortu~ male   19.0     3     2 19950    263
##  5          89        1      1 Fortu~ fema~  23.0     3     2 19950    263
##  6         342        1      1 Fortu~ fema~  24.0     3     2 19950    263
##  7         439        0      1 Fortu~ male   64.0     1     4 19950    263
##  8         312        1      1 Ryers~ fema~  18.0     2     2 PC 17~   262
##  9         743        1      1 "Ryer~ fema~  21.0     2     2 PC 17~   262
## 10         119        0      1 Baxte~ male   24.0     0     1 PC 17~   248
## # ... with 881 more rows, and 2 more variables: Cabin <chr>,
## #   Embarked <chr>
Ejercicio 6: Uso de mutate

La variable Parch corresponde al número de padres e hijos

La variable SibSp corresponde al número de hermanos y esposas

Usa mutate para combinar ambas variables y crear la variable FamSize

Solución Ejercicio 6

# Crea la columna FamSize (tamaño de la familia)
passengers %>% 
  mutate(FamSize = Parch + SibSp)

## # A tibble: 891 x 13
##    PassengerId Survived Pclass Name   Sex     Age SibSp Parch Ticket  Fare
##          <int>    <int>  <int> <chr>  <chr> <dbl> <int> <int> <chr>  <dbl>
##  1           1        0      3 Braun~ male  22.0      1     0 A/5 2~  7.25
##  2           2        1      1 Cumin~ fema~ 38.0      1     0 PC 17~ 71.3 
##  3           3        1      3 Heikk~ fema~ 26.0      0     0 STON/~  7.92
##  4           4        1      1 Futre~ fema~ 35.0      1     0 113803 53.1 
##  5           5        0      3 Allen~ male  35.0      0     0 373450  8.05
##  6           6        0      3 Moran~ male  NA        0     0 330877  8.46
##  7           7        0      1 McCar~ male  54.0      0     0 17463  51.9 
##  8           8        0      3 Palss~ male   2.00     3     1 349909 21.1 
##  9           9        1      3 Johns~ fema~ 27.0      0     2 347742 11.1 
## 10          10        1      2 Nasse~ fema~ 14.0      1     0 237736 30.1 
## # ... with 881 more rows, and 3 more variables: Cabin <chr>,
## #   Embarked <chr>, FamSize <int>
…
Ejercicio 7: Uso de mutate

¿Es posible que las familias más numerosas tengan una menor probabilidad de sobrevivir?

Para corroborar esto crea la nueva variable FamSize como la suma de Parch y SibSp como ya se hizo y luego ordena descendentemente por FamSize

Solución Ejercicio 7

# Crea la columna FamSize (tamaño de la familia)
# Ordena descendentemente por FamSize
passengers %>% 
  mutate(FamSize = Parch + SibSp) %>% 
  arrange(desc(FamSize))

## # A tibble: 891 x 13
##    PassengerId Survived Pclass Name   Sex     Age SibSp Parch Ticket  Fare
##          <int>    <int>  <int> <chr>  <chr> <dbl> <int> <int> <chr>  <dbl>
##  1         160        0      3 Sage,~ male  NA        8     2 CA. 2~  69.6
##  2         181        0      3 Sage,~ fema~ NA        8     2 CA. 2~  69.6
##  3         202        0      3 Sage,~ male  NA        8     2 CA. 2~  69.6
##  4         325        0      3 Sage,~ male  NA        8     2 CA. 2~  69.6
##  5         793        0      3 Sage,~ fema~ NA        8     2 CA. 2~  69.6
##  6         847        0      3 Sage,~ male  NA        8     2 CA. 2~  69.6
##  7         864        0      3 "Sage~ fema~ NA        8     2 CA. 2~  69.6
##  8          60        0      3 Goodw~ male  11.0      5     2 CA 21~  46.9
##  9          72        0      3 Goodw~ fema~ 16.0      5     2 CA 21~  46.9
## 10         387        0      3 Goodw~ male   1.00     5     2 CA 21~  46.9
## # ... with 881 more rows, and 3 more variables: Cabin <chr>,
## #   Embarked <chr>, FamSize <int>

Ejercicio 8: Uso de mutate

Como los ceros y unos no son muy informativos, transforma los valores de Survived a “SI” y “NO”

Crea una nueva tabla

Solución Ejercicio 8

# Transforma Survived en valores "SI" y "NO" (nueva tabla)
passengers1 <- passengers %>% 
  mutate(Survived = ifelse(Survived == 0, "NO", "SI"))
passengers1

## # A tibble: 891 x 12
##    PassengerId Survived Pclass Name   Sex     Age SibSp Parch Ticket  Fare
##          <int> <chr>     <int> <chr>  <chr> <dbl> <int> <int> <chr>  <dbl>
##  1           1 NO            3 Braun~ male  22.0      1     0 A/5 2~  7.25
##  2           2 SI            1 Cumin~ fema~ 38.0      1     0 PC 17~ 71.3 
##  3           3 SI            3 Heikk~ fema~ 26.0      0     0 STON/~  7.92
##  4           4 SI            1 Futre~ fema~ 35.0      1     0 113803 53.1 
##  5           5 NO            3 Allen~ male  35.0      0     0 373450  8.05
##  6           6 NO            3 Moran~ male  NA        0     0 330877  8.46
##  7           7 NO            1 McCar~ male  54.0      0     0 17463  51.9 
##  8           8 NO            3 Palss~ male   2.00     3     1 349909 21.1 
##  9           9 SI            3 Johns~ fema~ 27.0      0     2 347742 11.1 
## 10          10 SI            2 Nasse~ fema~ 14.0      1     0 237736 30.1 
## # ... with 881 more rows, and 2 more variables: Cabin <chr>,
## #   Embarked <chr>
…
